// Jest Snapshot v1, https://goo.gl/fbAQLP

exports[`testing model/schedule/parser_schedule should parse schedule from probe (0/0) 1`] = `
Array [
  Array [
    Array [
      Object {
        "number": 2,
        "phase": "Q2",
        "representingPhase": false,
        "subject": "M",
        "teacher": Object {
          "contraction": "TD",
          "gender": -1,
          "name": null,
        },
        "type": "LK",
      },
      Object {
        "building": "D",
        "roomNumber": 109,
      },
    ],
    Array [
      Object {
        "number": 2,
        "phase": "Q2",
        "representingPhase": false,
        "subject": "M",
        "teacher": Object {
          "contraction": "TD",
          "gender": -1,
          "name": null,
        },
        "type": "LK",
      },
      Object {
        "building": "D",
        "roomNumber": 109,
      },
    ],
    Array [
      Object {
        "number": 1,
        "phase": "Q2",
        "representingPhase": false,
        "subject": "GEA",
        "teacher": Object {
          "contraction": "MR",
          "gender": -1,
          "name": null,
        },
        "type": "GK",
      },
      Object {
        "building": "G",
        "roomNumber": 5,
      },
    ],
    Array [
      Object {
        "number": 1,
        "phase": "Q2",
        "representingPhase": false,
        "subject": "PH",
        "teacher": Object {
          "contraction": "JD",
          "gender": -1,
          "name": null,
        },
        "type": "GK",
      },
      Object {
        "building": "PH",
        "roomNumber": 3,
      },
    ],
    Array [
      Object {
        "number": 1,
        "phase": "Q2",
        "representingPhase": false,
        "subject": "PH",
        "teacher": Object {
          "contraction": "JD",
          "gender": -1,
          "name": null,
        },
        "type": "GK",
      },
      Object {
        "building": "PH",
        "roomNumber": 3,
      },
    ],
    Array [
      Object {
        "number": 2,
        "phase": "Q2",
        "representingPhase": false,
        "subject": "EK",
        "teacher": Object {
          "contraction": "RT",
          "gender": -1,
          "name": null,
        },
        "type": "GK",
      },
      Object {
        "building": "A",
        "roomNumber": 108,
      },
    ],
    Array [
      Object {
        "number": 5,
        "phase": "Q2",
        "representingPhase": false,
        "subject": "SWA",
        "teacher": Object {
          "contraction": "GRE",
          "gender": -1,
          "name": null,
        },
        "type": "GK",
      },
      Object {
        "building": "E",
        "roomNumber": 113,
      },
    ],
    null,
    null,
    Array [
      Object {
        "number": 1,
        "phase": "Q2",
        "representingPhase": false,
        "subject": "SP",
        "teacher": Object {
          "contraction": "GRE",
          "gender": -1,
          "name": null,
        },
        "type": "GK",
      },
      Object {
        "building": "KF",
        "roomNumber": 3,
      },
    ],
    Array [
      Object {
        "number": 1,
        "phase": "Q2",
        "representingPhase": false,
        "subject": "SP",
        "teacher": Object {
          "contraction": "GRE",
          "gender": -1,
          "name": null,
        },
        "type": "GK",
      },
      Object {
        "building": "KF",
        "roomNumber": 3,
      },
    ],
  ],
  Array [
    Array [
      Object {
        "number": 4,
        "phase": "Q2",
        "representingPhase": false,
        "subject": "IF",
        "teacher": Object {
          "contraction": "QB",
          "gender": -1,
          "name": null,
        },
        "type": "LK",
      },
      Object {
        "building": "G",
        "roomNumber": 202,
      },
    ],
    Array [
      Object {
        "number": 4,
        "phase": "Q2",
        "representingPhase": false,
        "subject": "IF",
        "teacher": Object {
          "contraction": "QB",
          "gender": -1,
          "name": null,
        },
        "type": "LK",
      },
      Object {
        "building": "G",
        "roomNumber": 202,
      },
    ],
    Array [
      Object {
        "number": 1,
        "phase": "Q2",
        "representingPhase": false,
        "subject": "PH",
        "teacher": Object {
          "contraction": "JD",
          "gender": -1,
          "name": null,
        },
        "type": "GK",
      },
      Object {
        "building": "PH",
        "roomNumber": 3,
      },
    ],
    Array [
      Object {
        "number": 1,
        "phase": "Q2",
        "representingPhase": false,
        "subject": "N",
        "teacher": Object {
          "contraction": "JN",
          "gender": -1,
          "name": null,
        },
        "type": "GK",
      },
      Object {
        "building": "G",
        "roomNumber": 5,
      },
    ],
    Array [
      Object {
        "number": 1,
        "phase": "Q2",
        "representingPhase": false,
        "subject": "N",
        "teacher": Object {
          "contraction": "JN",
          "gender": -1,
          "name": null,
        },
        "type": "GK",
      },
      Object {
        "building": "G",
        "roomNumber": 5,
      },
    ],
    Array [
      Object {
        "number": 4,
        "phase": "Q2",
        "representingPhase": false,
        "subject": "D",
        "teacher": Object {
          "contraction": "ST",
          "gender": -1,
          "name": null,
        },
        "type": "GK",
      },
      Object {
        "building": "G",
        "roomNumber": 204,
      },
    ],
    null,
    Array [
      Object {
        "number": 1,
        "phase": "Q2",
        "representingPhase": false,
        "subject": "GEA",
        "teacher": Object {
          "contraction": "MR",
          "gender": -1,
          "name": null,
        },
        "type": "GK",
      },
      Object {
        "building": "G",
        "roomNumber": 5,
      },
    ],
    Array [
      Object {
        "number": 1,
        "phase": "Q2",
        "representingPhase": false,
        "subject": "GEA",
        "teacher": Object {
          "contraction": "MR",
          "gender": -1,
          "name": null,
        },
        "type": "GK",
      },
      Object {
        "building": "G",
        "roomNumber": 5,
      },
    ],
    null,
    null,
  ],
  Array [
    Array [
      Object {
        "number": 5,
        "phase": "Q2",
        "representingPhase": false,
        "subject": "E",
        "teacher": Object {
          "contraction": "KS",
          "gender": -1,
          "name": null,
        },
        "type": "GK",
      },
      Object {
        "building": "G",
        "roomNumber": 5,
      },
    ],
    Array [
      Object {
        "number": 5,
        "phase": "Q2",
        "representingPhase": false,
        "subject": "E",
        "teacher": Object {
          "contraction": "KS",
          "gender": -1,
          "name": null,
        },
        "type": "GK",
      },
      Object {
        "building": "G",
        "roomNumber": 5,
      },
    ],
    null,
    Array [
      Object {
        "number": 2,
        "phase": "Q2",
        "representingPhase": false,
        "subject": "EK",
        "teacher": Object {
          "contraction": "RT",
          "gender": -1,
          "name": null,
        },
        "type": "GK",
      },
      Object {
        "building": "A",
        "roomNumber": 108,
      },
    ],
    Array [
      Object {
        "number": 2,
        "phase": "Q2",
        "representingPhase": false,
        "subject": "EK",
        "teacher": Object {
          "contraction": "RT",
          "gender": -1,
          "name": null,
        },
        "type": "GK",
      },
      Object {
        "building": "A",
        "roomNumber": 108,
      },
    ],
    Array [
      Object {
        "number": 2,
        "phase": "Q2",
        "representingPhase": false,
        "subject": "M",
        "teacher": Object {
          "contraction": "TD",
          "gender": -1,
          "name": null,
        },
        "type": "LK",
      },
      Object {
        "building": "D",
        "roomNumber": 109,
      },
    ],
    null,
    null,
    null,
    null,
    null,
  ],
  Array [
    Array [
      Object {
        "number": 4,
        "phase": "Q2",
        "representingPhase": false,
        "subject": "IF",
        "teacher": Object {
          "contraction": "QB",
          "gender": -1,
          "name": null,
        },
        "type": "LK",
      },
      Object {
        "building": "G",
        "roomNumber": 202,
      },
    ],
    Array [
      Object {
        "number": 4,
        "phase": "Q2",
        "representingPhase": false,
        "subject": "IF",
        "teacher": Object {
          "contraction": "QB",
          "gender": -1,
          "name": null,
        },
        "type": "LK",
      },
      Object {
        "building": "G",
        "roomNumber": 202,
      },
    ],
    Array [
      Object {
        "number": 4,
        "phase": "Q2",
        "representingPhase": false,
        "subject": "D",
        "teacher": Object {
          "contraction": "ST",
          "gender": -1,
          "name": null,
        },
        "type": "GK",
      },
      Object {
        "building": "G",
        "roomNumber": 203,
      },
    ],
    Array [
      Object {
        "number": 4,
        "phase": "Q2",
        "representingPhase": false,
        "subject": "D",
        "teacher": Object {
          "contraction": "ST",
          "gender": -1,
          "name": null,
        },
        "type": "GK",
      },
      Object {
        "building": "G",
        "roomNumber": 203,
      },
    ],
    null,
    null,
    Array [
      Object {
        "number": 1,
        "phase": "Q2",
        "representingPhase": false,
        "subject": "N",
        "teacher": Object {
          "contraction": "JN",
          "gender": -1,
          "name": null,
        },
        "type": "GK",
      },
      Object {
        "building": "G",
        "roomNumber": 5,
      },
    ],
    Array [
      Object {
        "number": 1,
        "phase": "Q2",
        "representingPhase": false,
        "subject": "SP",
        "teacher": Object {
          "contraction": "GRE",
          "gender": -1,
          "name": null,
        },
        "type": "GK",
      },
      Object {
        "building": "TH",
        "roomNumber": null,
      },
    ],
    null,
    null,
    null,
  ],
  Array [
    Array [
      Object {
        "number": 2,
        "phase": "Q2",
        "representingPhase": false,
        "subject": "M",
        "teacher": Object {
          "contraction": "TD",
          "gender": -1,
          "name": null,
        },
        "type": "LK",
      },
      Object {
        "building": "D",
        "roomNumber": 109,
      },
    ],
    Array [
      Object {
        "number": 2,
        "phase": "Q2",
        "representingPhase": false,
        "subject": "M",
        "teacher": Object {
          "contraction": "TD",
          "gender": -1,
          "name": null,
        },
        "type": "LK",
      },
      Object {
        "building": "D",
        "roomNumber": 109,
      },
    ],
    Array [
      Object {
        "number": 1,
        "phase": "Q2",
        "representingPhase": false,
        "subject": "N",
        "teacher": Object {
          "contraction": "JN",
          "gender": -1,
          "name": null,
        },
        "type": "GK",
      },
      Object {
        "building": "C",
        "roomNumber": 2,
      },
    ],
    Array [
      Object {
        "number": 5,
        "phase": "Q2",
        "representingPhase": false,
        "subject": "SWA",
        "teacher": Object {
          "contraction": "GRE",
          "gender": -1,
          "name": null,
        },
        "type": "GK",
      },
      Object {
        "building": "C",
        "roomNumber": 2,
      },
    ],
    Array [
      Object {
        "number": 5,
        "phase": "Q2",
        "representingPhase": false,
        "subject": "SWA",
        "teacher": Object {
          "contraction": "GRE",
          "gender": -1,
          "name": null,
        },
        "type": "GK",
      },
      Object {
        "building": "C",
        "roomNumber": 2,
      },
    ],
    Array [
      Object {
        "number": 4,
        "phase": "Q2",
        "representingPhase": false,
        "subject": "IF",
        "teacher": Object {
          "contraction": "QB",
          "gender": -1,
          "name": null,
        },
        "type": "LK",
      },
      Object {
        "building": "G",
        "roomNumber": 202,
      },
    ],
    Array [
      Object {
        "number": 5,
        "phase": "Q2",
        "representingPhase": false,
        "subject": "E",
        "teacher": Object {
          "contraction": "KS",
          "gender": -1,
          "name": null,
        },
        "type": "GK",
      },
      Object {
        "building": "G",
        "roomNumber": 5,
      },
    ],
    null,
    null,
    null,
    null,
  ],
]
`;
